^C:\USERS\ANDREI\SOURCE\REPOS\COMPLEX\COMPLEX\COMPLEX.CPP
/c /ZI /JMC /nologo /W3 /WX- /diagnostics:column /sdl /Od /Oy- /D WIN32 /D _DEBUG /D _CONSOLE /D _UNICODE /D UNICODE /Gm- /EHsc /RTC1 /MDd /GS /fp:precise /permissive- /Zc:wchar_t /Zc:forScope /Zc:inline /Fo"DEBUG\\" /Fd"DEBUG\VC142.PDB" /Gd /TP /analyze- /FC C:\USERS\ANDREI\SOURCE\REPOS\COMPLEX\COMPLEX\COMPLEX.CPP
^C:\USERS\ANDREI\SOURCE\REPOS\COMPLEX\COMPLEX\DYNAMICARRAY.CPP
/c /ZI /JMC /nologo /W3 /WX- /diagnostics:column /sdl /Od /Oy- /D WIN32 /D _DEBUG /D _CONSOLE /D _UNICODE /D UNICODE /Gm- /EHsc /RTC1 /MDd /GS /fp:precise /permissive- /Zc:wchar_t /Zc:forScope /Zc:inline /Fo"DEBUG\\" /Fd"DEBUG\VC142.PDB" /Gd /TP /analyze- /FC C:\USERS\ANDREI\SOURCE\REPOS\COMPLEX\COMPLEX\DYNAMICARRAY.CPP
^C:\USERS\ANDREI\SOURCE\REPOS\COMPLEX\COMPLEX\MAIN.CPP
/c /ZI /JMC /nologo /W3 /WX- /diagnostics:column /sdl /Od /Oy- /D WIN32 /D _DEBUG /D _CONSOLE /D _UNICODE /D UNICODE /Gm- /EHsc /RTC1 /MDd /GS /fp:precise /permissive- /Zc:wchar_t /Zc:forScope /Zc:inline /Fo"DEBUG\\" /Fd"DEBUG\VC142.PDB" /Gd /TP /analyze- /FC C:\USERS\ANDREI\SOURCE\REPOS\COMPLEX\COMPLEX\MAIN.CPP
^C:\USERS\ANDREI\SOURCE\REPOS\COMPLEX\COMPLEX\TESTCOMPLEX.CPP
/c /ZI /JMC /nologo /W3 /WX- /diagnostics:column /sdl /Od /Oy- /D WIN32 /D _DEBUG /D _CONSOLE /D _UNICODE /D UNICODE /Gm- /EHsc /RTC1 /MDd /GS /fp:precise /permissive- /Zc:wchar_t /Zc:forScope /Zc:inline /Fo"DEBUG\\" /Fd"DEBUG\VC142.PDB" /Gd /TP /analyze- /FC C:\USERS\ANDREI\SOURCE\REPOS\COMPLEX\COMPLEX\TESTCOMPLEX.CPP
