^C:\USERS\ANDREI\SOURCE\REPOS\COMPLEX\COMPLEX\DEBUG\COMPLEX.OBJ|C:\USERS\ANDREI\SOURCE\REPOS\COMPLEX\COMPLEX\DEBUG\DYNAMICARRAY.OBJ|C:\USERS\ANDREI\SOURCE\REPOS\COMPLEX\COMPLEX\DEBUG\MAIN.OBJ|C:\USERS\ANDREI\SOURCE\REPOS\COMPLEX\COMPLEX\DEBUG\TESTCOMPLEX.OBJ
/OUT:"C:\USERS\ANDREI\SOURCE\REPOS\COMPLEX\DEBUG\COMPLEX.EXE" /INCREMENTAL /NOLOGO KERNEL32.LIB USER32.LIB GDI32.LIB WINSPOOL.LIB COMDLG32.LIB ADVAPI32.LIB SHELL32.LIB OLE32.LIB OLEAUT32.LIB UUID.LIB ODBC32.LIB ODBCCP32.LIB /MANIFEST /MANIFESTUAC:"level='asInvoker' uiAccess='false'" /manifest:embed /DEBUG:FASTLINK /PDB:"C:\USERS\ANDREI\SOURCE\REPOS\COMPLEX\DEBUG\COMPLEX.PDB" /SUBSYSTEM:CONSOLE /TLBID:1 /DYNAMICBASE /NXCOMPAT /IMPLIB:"C:\USERS\ANDREI\SOURCE\REPOS\COMPLEX\DEBUG\COMPLEX.LIB" /MACHINE:X86 DEBUG\COMPLEX.OBJ
DEBUG\DYNAMICARRAY.OBJ
DEBUG\MAIN.OBJ
DEBUG\TESTCOMPLEX.OBJ
